…
```r
library('isdparser')
```

### Parse an ISD file


```r
path <- system.file('extdata/725300-94846-2014.gz', package = "isdparser")
isd_parser(path)
#> # A tibble: 13,087 × 252
#>    total_chars usaf_station wban_station       date  time date_flag
#>          <dbl>        <chr>        <chr>     <date> <chr>     <chr>
#> 1          227       725300        94846 2014-01-01  0000         4
#> 2          193       725300        94846 2014-01-01  0049         6
#> 3          250       725300        94846 2014-01-01  0051         7
#> 4          243       725300        94846 2014-01-01  0108         7
#> 5          243       725300        94846 2014-01-01  0117         7
#> 6          250       725300        94846 2014-01-01  0151         7
#> 7          340       725300        94846 2014-01-01  0251         7
#> 8          277       725300        94846 2014-01-01  0300         7
#> 9          239       725300        94846 2014-01-01  0339         7
#> 10         284       725300        94846 2014-01-01  0351         7
#> # ... with 13,077 more rows, and 246 more variables: latitude <dbl>,
#> #   longitude <dbl>, type_code <chr>, elevation <dbl>, call_letter <chr>,
#> #   quality <chr>, wind_direction <dbl>, wind_direction_quality <chr>,
#> #   wind_code <chr>, wind_speed <dbl>, wind_speed_quality <chr>,
#> #   ceiling_height <chr>, ceiling_height_quality <chr>,
#> #   ceiling_height_determination <chr>, ceiling_height_cavok <chr>,
#> #   visibility_distance <chr>, visibility_distance_quality <chr>,
#> #   visibility_code <chr>, visibility_code_quality <chr>,
#> #   temperature <dbl>, temperature_quality <chr>,
…
